{
  "data":    [
    {
      "id": 77,
      "name": "Ninja 48/3000 HPA Tank",
      "sku": "NINJA348",
      "price": 89.95,
      "cost_price": 60.93,
      "retail_price": 89.95,
      "sale_price": 0,
      "inventory_level": 3,
      "inventory_tracking": "product",
      "is_visible": true
    },
    {
      "id": 80,
      "name": "Empire BT Omega",
      "sku": "789625170410",
      "price": 172,
      "cost_price": 117.8,
      "retail_price": 172,
      "sale_price": 0,
      "inventory_level": 0,
      "inventory_tracking": "product",
      "is_visible": false
    },
    {
      "id": 84,
      "name": "Dye DAM Paintball Gun Black/Black",
      "sku": "10509",
      "price": 2018.95,
      "cost_price": 1574.5,
      "retail_price": 2018.95,
      "sale_price": 0,
      "inventory_level": 1,
      "inventory_tracking": "product",
      "is_visible": true
    },
    {
      "id": 85,
      "name": "Dye DAM Paintball Gun Dyecam",
      "sku": "10510",
      "price": 2389,
      "cost_price": 1732.75,
      "retail_price": 2389,
      "sale_price": 0,
      "inventory_level": 0,
      "inventory_tracking": "product",
      "is_visible": true
    },
    {
      "id": 86,
      "name": "Dye DAM Paintball Gun Earth/Black",
      "sku": "10511",
      "price": 2018.95,
      "cost_price": 1574.5,
      "retail_price": 2018.95,
      "sale_price": 0,
      "inventory_level": 0,
      "inventory_tracking": "product",
      "is_visible": true
    },
    {
      "id": 87,
      "name": "Dye DAM Paintball Gun Olive/Black",
      "sku": "10512",
      "price": 2018.95,
      "cost_price": 1574.5,
      "retail_price": 2018.95,
      "sale_price": 0,
      "inventory_level": 0,
      "inventory_tracking": "product",
      "is_visible": true
    },
    {
      "id": 88,
      "name": "Empire BT DFENDER Marker Black",
      "sku": "10513",
      "price": 1254.95,
      "cost_price": 791.75,
      "retail_price": 1254.95,
      "sale_price": 0,
      "inventory_level": 0,
      "inventory_tracking": "none",
      "is_visible": true
    },
    {
      "id": 89,
      "name": "GOG eNMey Black",
      "sku": "10514",
      "price": 225,
      "cost_price": 139.25,
      "retail_price": 225,
      "sale_price": 0,
      "inventory_level": 0,
      "inventory_tracking": "product",
      "is_visible": true
    },
    {
      "id": 90,
      "name": "GOG eNMey Titanium Silver",
      "sku": "01GOGNME001SLV",
      "price": 225,
      "cost_price": 139.25,
      "retail_price": 225,
      "sale_price": 0,
      "inventory_level": 0,
      "inventory_tracking": "product",
      "is_visible": true
    },
    {
      "id": 91,
      "name": "GOG eNMey Blue",
      "sku": "01GOGNME001BLU",
      "price": 225,
      "cost_price": 139.25,
      "retail_price": 225,
      "sale_price": 0,
      "inventory_level": 0,
      "inventory_tracking": "product",
      "is_visible": true
    },
    {
      "id": 92,
      "name": "GOG eNMey Red",
      "sku": "01GOGNME001RED",
      "price": 225,
      "cost_price": 139.25,
      "retail_price": 225,
      "sale_price": 0,
      "inventory_level": 1,
      "inventory_tracking": "product",
      "is_visible": true
    },
    {
      "id": 95,
      "name": "Spyder Fenix Silver/Grey",
      "sku": "789625151594",
      "price": 183.99,
      "cost_price": 127.25,
      "retail_price": 183.99,
      "sale_price": 0,
      "inventory_level": 0,
      "inventory_tracking": "none",
      "is_visible": false
    },
    {
      "id": 98,
      "name": "Spyder MR100 Pro w/Car Stock",
      "sku": "789625152041",
      "price": 146.95,
      "cost_price": 85.99,
      "retail_price": 146.95,
      "sale_price": 0,
      "inventory_level": 2,
      "inventory_tracking": "product",
      "is_visible": false
    },
    {
      "id": 103,
      "name": "First Strike T15 Paintball Gun",
      "sku": "849176011010",
      "price": 719.95,
      "cost_price": 379.41,
      "retail_price": 719.95,
      "sale_price": 0,
      "inventory_level": 4,
      "inventory_tracking": "product",
      "is_visible": true
    },
    {
      "id": 104,
      "name": "Tippman 98 ACT Black",
      "sku": "10529",
      "price": 214.99,
      "cost_price": 0.01,
      "retail_price": 214.99,
      "sale_price": 0,
      "inventory_level": 0,
      "inventory_tracking": "none",
      "is_visible": true
    },
    {
      "id": 105,
      "name": "Tippman TiPX Paintball Pistol",
      "sku": "669966995289",
      "price": 419.95,
      "cost_price": 214.5,
      "retail_price": 419.95,
      "sale_price": 0,
      "inventory_level": 0,
      "inventory_tracking": "product",
      "is_visible": true
    },
    {
      "id": 106,
      "name": "Tippmann TiPX Deluxe PIstol Kit",
      "sku": "669966999638",
      "price": 499.95,
      "cost_price": 236.75,
      "retail_price": 499.95,
      "sale_price": 0,
      "inventory_level": 0,
      "inventory_tracking": "product",
      "is_visible": true
    },
    {
      "id": 107,
      "name": "Tippmann A5",
      "sku": "669966997559",
      "price": 309.95,
      "cost_price": 188,
      "retail_price": 309.95,
      "sale_price": 0,
      "inventory_level": 0,
      "inventory_tracking": "product",
      "is_visible": true
    },
    {
      "id": 108,
      "name": "Tippmann Bravo One Elite",
      "sku": "669966999690",
      "price": 324.95,
      "cost_price": 132.25,
      "retail_price": 324.95,
      "sale_price": 0,
      "inventory_level": 1,
      "inventory_tracking": "product",
      "is_visible": true
    },
    {
      "id": 109,
      "name": "Tippmann Cronus Tactical Paintball Marker",
      "sku": "669966991106",
      "price": 229.95,
      "cost_price": 115.25,
      "retail_price": 229.95,
      "sale_price": 0,
      "inventory_level": 2,
      "inventory_tracking": "product",
      "is_visible": true
    },
    {
      "id": 111,
      "name": "Tippmann Sierra One",
      "sku": "669966995081",
      "price": 309.95,
      "cost_price": 123.25,
      "retail_price": 309.95,
      "sale_price": 0,
      "inventory_level": 0,
      "inventory_tracking": "none",
      "is_visible": true
    },
    {
      "id": 112,
      "name": "Tippmann Sierra One Tan",
      "sku": "669966990437",
      "price": 309.95,
      "cost_price": 156.75,
      "retail_price": 309.95,
      "sale_price": 0,
      "inventory_level": 0,
      "inventory_tracking": "product",
      "is_visible": true
    },
    {
      "id": 116,
      "name": "1.8K Rupture Disk W/Nut HPA",
      "sku": "10541",
      "price": 12.99,
      "cost_price": 0,
      "retail_price": 12.99,
      "sale_price": 0,
      "inventory_level": 0,
      "inventory_tracking": "none",
      "is_visible": false
    },
    {
      "id": 118,
      "name": "3K Rupture Disk W/Nut C02",
      "sku": "10543",
      "price": 12.99,
      "cost_price": 0,
      "retail_price": 12.99,
      "sale_price": 0,
      "inventory_level": 0,
      "inventory_tracking": "product",
      "is_visible": true
    },
    {
      "id": 119,
      "name": "Empire 68/4500 HPA Tank Carbon Fibre 5 Year Hydro",
      "sku": "10544",
      "price": 224.99,
      "cost_price": 138,
      "retail_price": 224.99,
      "sale_price": 0,
      "inventory_level": 0,
      "inventory_tracking": "product",
      "is_visible": false
    },
    {
      "id": 120,
      "name": "Exalt 48 ci Steel Tank Cover",
      "sku": "105455",
      "price": 19.99,
      "cost_price": 0,
      "retail_price": 19.99,
      "sale_price": 0,
      "inventory_level": 10,
      "inventory_tracking": "variant",
      "is_visible": true
    },
    {
      "id": 121,
      "name": "Dye i4 Black Thermal",
      "sku": "725239138514",
      "price": 191,
      "cost_price": 0.01,
      "retail_price": 191,
      "sale_price": 0,
      "inventory_level": 0,
      "inventory_tracking": "product",
      "is_visible": false
    },
    {
      "id": 132,
      "name": "Empire Helix Goggle Thermal Black",
      "sku": "789625218518",
      "price": 54.99,
      "cost_price": 28,
      "retail_price": 54.99,
      "sale_price": 0,
      "inventory_level": 1,
      "inventory_tracking": "product",
      "is_visible": true
    },
    {
      "id": 146,
      "name": "VForce Profiler Paintball Mask / Shadow",
      "sku": "789625231791",
      "price": 99.95,
      "cost_price": 52.75,
      "retail_price": 99.95,
      "sale_price": 0,
      "inventory_level": 0,
      "inventory_tracking": "product",
      "is_visible": true
    },
    {
      "id": 150,
      "name": "JT Flex8 Full Coverage Black",
      "sku": "789625230121",
      "price": 113.95,
      "cost_price": 66.25,
      "retail_price": 113.99,
      "sale_price": 0,
      "inventory_level": 1,
      "inventory_tracking": "product",
      "is_visible": true
    },
    {
      "id": 151,
      "name": "JT Flex 8 Full Coverage Camo",
      "sku": "789625230879",
      "price": 113.95,
      "cost_price": 66.25,
      "retail_price": 113.95,
      "sale_price": 0,
      "inventory_level": 0,
      "inventory_tracking": "product",
      "is_visible": true
    },
    {
      "id": 162,
      "name": "Empire Halo Too Matte Black",
      "sku": "789625385821",
      "price": 103.95,
      "cost_price": 60,
      "retail_price": 103.95,
      "sale_price": 0,
      "inventory_level": 6,
      "inventory_tracking": "product",
      "is_visible": true
    },
    {
      "id": 163,
      "name": "Empire Halo Too SE White",
      "sku": "10587",
      "price": 84.99,
      "cost_price": 0,
      "retail_price": 84.99,
      "sale_price": 0,
      "inventory_level": 0,
      "inventory_tracking": "product",
      "is_visible": false
    },
    {
      "id": 171,
      "name": "Gen-X 200 Round Hopper Black",
      "sku": "10595",
      "price": 7.99,
      "cost_price": 0,
      "retail_price": 7.99,
      "sale_price": 0,
      "inventory_level": 0,
      "inventory_tracking": "none",
      "is_visible": true
    },
    {
      "id": 173,
      "name": "Proto Primo Loader Black",
      "sku": "725239150486",
      "price": 31.95,
      "cost_price": 0,
      "retail_price": 31.95,
      "sale_price": 0,
      "inventory_level": 0,
      "inventory_tracking": "product",
      "is_visible": true
    },
    {
      "id": 174,
      "name": "Spyder 9 Round First Strike Magazine",
      "sku": "789625151709",
      "price": 34.95,
      "cost_price": 21,
      "retail_price": 34.95,
      "sale_price": 0,
      "inventory_level": 9,
      "inventory_tracking": "product",
      "is_visible": true
    },
    {
      "id": 176,
      "name": "Tippman TiPX Magazines 2 Pack - 7 Ball (Gen 2)",
      "sku": "669966997399",
      "price": 44.99,
      "cost_price": 0,
      "retail_price": 44.99,
      "sale_price": 0,
      "inventory_level": 0,
      "inventory_tracking": "product",
      "is_visible": true
    },
    {
      "id": 179,
      "name": "Exalt Rotor Speedfeed Black",
      "sku": "10601",
      "price": 19.99,
      "cost_price": 0,
      "retail_price": 19.99,
      "sale_price": 0,
      "inventory_level": 0,
      "inventory_tracking": "product",
      "is_visible": true
    },
    {
      "id": 180,
      "name": "Exalt Rotor Speedfeed Green",
      "sku": "10602",
      "price": 19.99,
      "cost_price": 0,
      "retail_price": 19.99,
      "sale_price": 0,
      "inventory_level": 0,
      "inventory_tracking": "product",
      "is_visible": true
    },
    {
      "id": 181,
      "name": "Exalt Rotor Speedfeed Silver",
      "sku": "10603",
      "price": 19.99,
      "cost_price": 0,
      "retail_price": 19.99,
      "sale_price": 0,
      "inventory_level": 0,
      "inventory_tracking": "product",
      "is_visible": true
    },
    {
      "id": 182,
      "name": "Exalt Speed feed Halo/Pinochio/Magna Grey",
      "sku": "10604",
      "price": 19.99,
      "cost_price": 0,
      "retail_price": 19.99,
      "sale_price": 0,
      "inventory_level": 0,
      "inventory_tracking": "product",
      "is_visible": true
    },
    {
      "id": 183,
      "name": "Exalt Speed Feed Halo/Pinochio/Magna Olive",
      "sku": "10605",
      "price": 19.99,
      "cost_price": 0,
      "retail_price": 19.99,
      "sale_price": 0,
      "inventory_level": 0,
      "inventory_tracking": "product",
      "is_visible": true
    },
    {
      "id": 184,
      "name": "Exalt Speed Feed Halo/Pinochio/Magna Tan",
      "sku": "10606",
      "price": 19.99,
      "cost_price": 0,
      "retail_price": 19.99,
      "sale_price": 0,
      "inventory_level": 0,
      "inventory_tracking": "product",
      "is_visible": true
    },
    {
      "id": 185,
      "name": "Exalt Universal Feedgate V3 - Camo",
      "sku": "10607",
      "price": 19.99,
      "cost_price": 0,
      "retail_price": 19.99,
      "sale_price": 0,
      "inventory_level": 0,
      "inventory_tracking": "product",
      "is_visible": true
    },
    {
      "id": 186,
      "name": "Tac Cap Loader",
      "sku": "10608",
      "price": 14.99,
      "cost_price": 0,
      "retail_price": 14.99,
      "sale_price": 0,
      "inventory_level": 9,
      "inventory_tracking": "product",
      "is_visible": true
    },
    {
      "id": 187,
      "name": "Energy \"AA\" Battery",
      "sku": "6935609923266",
      "price": 7.99,
      "cost_price": 0,
      "retail_price": 7.99,
      "sale_price": 0,
      "inventory_level": 0,
      "inventory_tracking": "product",
      "is_visible": true
    },
    {
      "id": 188,
      "name": "Energy Paintball 9V Battery",
      "sku": "3700974800329",
      "price": 4.99,
      "cost_price": 0,
      "retail_price": 4.99,
      "sale_price": 0,
      "inventory_level": 0,
      "inventory_tracking": "product",
      "is_visible": true
    },
    {
      "id": 189,
      "name": "Spyder 9.6v Battery and AC Charger",
      "sku": "10611",
      "price": 24.99,
      "cost_price": 0,
      "retail_price": 24.99,
      "sale_price": 0,
      "inventory_level": 0,
      "inventory_tracking": "none",
      "is_visible": false
    },
    {
      "id": 190,
      "name": "Exalt Barrel Maid Grey",
      "sku": "082045121810",
      "price": 19.99,
      "cost_price": 12.75,
      "retail_price": 19.99,
      "sale_price": 0,
      "inventory_level": 1,
      "inventory_tracking": "product",
      "is_visible": true
    },
    {
      "id": 191,
      "name": "Exalt Barrel Maid Olive",
      "sku": "10613",
      "price": 19.99,
      "cost_price": 12.75,
      "retail_price": 19.99,
      "sale_price": 0,
      "inventory_level": 0,
      "inventory_tracking": "product",
      "is_visible": true
    }
  ],
  "meta": {"pagination":    {
    "total": 2735,
    "count": 50,
    "per_page": 50,
    "current_page": 1,
    "total_pages": 55,
    "links":       {
      "next": "?limit=50&page=2&include_fields=id%2Cname%2Csku%2Cis_visible%2Cprice%2Ccost_price%2Cretail_price%2Csale_price%2Cinventory_level%2Cinventory_tracking",
      "current": "?limit=50&page=1&include_fields=id%2Cname%2Csku%2Cis_visible%2Cprice%2Ccost_price%2Cretail_price%2Csale_price%2Cinventory_level%2Cinventory_tracking"
    },
    "too_many": false
  }}
}